{
    "antifeatures": {
        "Ads": "此應用程式含有廣告",
        "DisabledAlgorithm": "這個應用程式的安全簽章較弱",
        "KnownVuln": "這個應用程式包含了已知的安全性漏洞",
        "NoSourceSince": "原始碼不再能取得，無法更新。",
        "NonFreeAdd": "此應用程式推廣非自由的附加元件",
        "NonFreeAssets": "此應用程式含有非自由的資源",
        "NonFreeDep": "此應用程式依賴其他非自由的應用程式",
        "NonFreeNet": "此應用程式推廣非自由的網路服務",
        "Tracking": "本應用程式會追蹤和彙報您的行為",
        "UpstreamNonFree": "上游原始碼並非完全自由"
    },
    "index": {
        "download_fdroid": "下載 F-Droid",
        "gpg_signature": "PGP 簽章",
        "introduction": "F-Droid 是一個可在 Android 平台上安裝的自由與開源（FOSS）的應用程式目錄，可供您輕鬆瀏覽、安裝並持續追蹤裝置上應用程式的更新。",
        "screenshot": "F-Droid Android 應用程式螢幕快照",
        "title": "F-Droid 是什麼？"
    },
    "navigation": {
        "about": "關於",
        "browse": "瀏覽",
        "contribute": "進行貢獻",
        "documentation": "文件",
        "forum": "論壇",
        "issues": "問題",
        "news": "新聞"
    },
    "package": {
        "anti_features": "反特徵",
        "anti_features_warning": "此應用程式可能有您不喜歡的功能",
        "author": "作者",
        "build_metadata": "構建中介資料",
        "changelog": "更新日誌",
        "donate": "捐助",
        "download": "下載 [file_extension]",
        "flattr": "Flattr",
        "gpg_signature": "PGP 簽章",
        "issue_tracker": "問題追蹤系統",
        "liberapay": "Liberapay",
        "license": "授權條款",
        "minimum_android_version": "此版本需要 Android [android_version] 或更高的版本。",
        "new_in_version": "新版本 [latest_version]",
        "packages": "套件",
        "permissions": "權限",
        "signed_by_developer": "此套件包由原始開發者構建和簽署。",
        "signed_by_fdroid": "此套件包由 F-Droid 構建，並保證對應於<a href=\"[source_code_url]\">此原始碼 tarball</a>。",
        "source_code": "原始碼",
        "suggest_downloading_via_fdroid": "雖然在下方可選擇下載 APK 檔案，但要留意這樣的安裝方式將不會收到更新通知，是一種較不安全的下載方法。建議您先安裝 F-Droid 用戶端使用。",
        "technical_info": "技術資訊",
        "version_info": "<b>版本 [package_version]</b> ([package_version_code]) - 於 [package_added_date] 新增",
        "website": "網站"
    },
    "permissions": {
        "permdesc_acceptHandovers": "允許應用程式繼續進行在其他應用程式中發起的通話。",
        "permdesc_accessCoarseLocation": "這個應用程式可根據網路來源 (例如基地台和 Wi-Fi 網路) 取得你的位置資訊。你必須在手機上開啟這類定位服務，才能讓這個應用程式取得位置資訊。",
        "permdesc_accessDrmCertificates": "允許應用程式佈建及使用 DRM 憑證 (一般應用程式並不需要)。",
        "permdesc_accessFineLocation": "這個應用程式可根據 GPS 或網路位置來源 (例如基地台和 Wi-Fi 網路) 取得你的位置資訊。你必須在手機上開啟這類定位服務，才能讓這個應用程式取得位置資訊。不過這可能會增加耗電量。",
        "permdesc_accessImsCallService": "允許應用程式自動使用 IMS 服務撥打電話。",
        "permdesc_accessLocationExtraCommands": "允許應用程式存取額外位置資訊提供者指令。這項設定可能會造成應用程式干擾 GPS 或其他位置資訊來源的運作。",
        "permdesc_accessNetworkConditions": "允許應用程式監聽網路狀況觀察資訊 (一般應用程式並不需要)。",
        "permdesc_accessNetworkState": "允許應用程式查看網路連線相關資訊，例如有哪些網路，以及已連上哪些網路。",
        "permdesc_accessNotifications": "允許應用程式擷取、檢查及清除通知 (包括由其他應用程式發佈的通知)。",
        "permdesc_accessWifiState": "允許應用程式查看 Wi-Fi 網路相關資訊，例如是否已啟用 Wi-Fi，以及所連上 Wi-Fi 裝置的名稱。",
        "permdesc_accessWimaxState": "允許應用程式判斷是否已啟用 WiMAX，以及判讀任何已連上 WiMAX 網路的相關資訊。",
        "permdesc_access_notification_policy": "允許應用程式讀取及寫入「零打擾」設定。",
        "permdesc_addVoicemail": "允許應用程式將訊息新增至你的語音信箱收件匣。",
        "permdesc_answerPhoneCalls": "允許應用程式接聽來電。",
        "permdesc_bindCarrierMessagingService": "允許應用程式與電信業者簡訊服務的頂層介面繫結 (一般應用程式並不需要)。",
        "permdesc_bindCarrierServices": "允許應用程式繫結至電信業者服務 (一般應用程式並不需要)。",
        "permdesc_bindConditionProviderService": "允許應用程式繫結至條件提供者服務的頂層介面 (一般應用程式並不需要)。",
        "permdesc_bindDreamService": "允許應用程式繫結至 Dream 服務的頂層介面 (一般應用程式不需使用)。",
        "permdesc_bindNotificationListenerService": "允許應用程式繫結至通知接聽器服務的頂層介面 (一般應用程式不需使用)。",
        "permdesc_bind_connection_service": "允許應用程式與電話語音服務互動以撥接電話。",
        "permdesc_bind_incall_service": "允許應用程式控制使用者看到通話螢幕的時機和方式。",
        "permdesc_bluetooth": "允許應用程式查看手機的藍牙設定，以及建立和接受與其他配對裝置的連線。",
        "permdesc_bluetoothAdmin": "允許應用程式設定本機藍牙手機，以及搜尋遠端裝置並配對連線。",
        "permdesc_bodySensors": "允許應用程式存取感測器所收集的資料 (這類感測器可監測你的體能狀態，例如你的心跳速率)。",
        "permdesc_broadcastSticky": "允許應用程式傳送記憶廣播，這類廣播在廣播動作結束後仍繼續存在。請注意，過度使用此功能可能導致手機使用過多的記憶體，導致手機的執行速度變慢或不穩定。",
        "permdesc_callPhone": "允許應用程式自行撥打電話，但可能產生非預期的費用或撥打非預期的電話。注意：這項權限不允許應用程式撥打緊急電話。惡意應用程式可能利用此功能擅自撥打電話，增加你不必要的額外支出。",
        "permdesc_camera": "這個應用程式隨時可使用相機拍照及錄影。",
        "permdesc_changeNetworkState": "允許應用程式變更網路連線狀態。",
        "permdesc_changeTetherState": "允許應用程式變更共用網路的連線狀態。",
        "permdesc_changeWifiMulticastState": "允許應用程式接收透過多點傳播位址傳送給 Wi-Fi 網路上所有裝置 (而不只是傳送給你的手機) 的封包。這項設定會比非多點傳播模式耗用更多電力。",
        "permdesc_changeWifiState": "允許應用程式與 Wi-Fi 存取點連線或中斷連線，並可變更 Wi-Fi 網路的裝置設定。",
        "permdesc_changeWimaxState": "允許應用程式建立或中斷手機與 WiMAX 網路的連線。",
        "permdesc_connection_manager": "允許應用程式管理電信連線。",
        "permdesc_control_incall_experience": "允許應用程式向使用者提供通話體驗。",
        "permdesc_createNetworkSockets": "允許應用程式建立網路通訊端及使用自訂網路通訊協定。瀏覽器和其他應用程式會提供將資料傳輸到網際網路的方法，因此不需要這項權限也能將資料傳輸到網際網路。",
        "permdesc_disableKeyguard": "允許應用程式停用按鍵鎖定以及其他相關的密碼安全性功能。例如：手機收到來電時停用按鍵鎖定，通話結束後重新啟用按鍵鎖定。",
        "permdesc_enableCarMode": "允許應用程式啟用車用模式。",
        "permdesc_expandStatusBar": "允許應用程式展開或收合狀態列。",
        "permdesc_foregroundService": "允許應用程式使用前景服務。",
        "permdesc_getAccounts": "允許應用程式取得手機上所記憶的帳戶清單，其中可能包括你安裝的應用程式所建立的任何帳戶。",
        "permdesc_getPackageSize": "允許應用程式擷取本身的程式碼、資料及快取大小",
        "permdesc_getTasks": "允許應用程式擷取最近執行工作的資訊。這項設定可讓應用程式找出裝置所用程式的相關資訊。",
        "permdesc_handoverStatus": "允許應用程式接收 Android Beam 目前傳輸的資訊",
        "permdesc_install_shortcut": "允許應用程式自動新增主螢幕捷徑。",
        "permdesc_invokeCarrierSetup": "允許應用程式叫用電信業者提供的設定應用程式 (一般應用程式並不需要)。",
        "permdesc_killBackgroundProcesses": "允許應用程式終止其他應用程式的背景處理程序。這項設定可能會導致其他應用程式停止執行。",
        "permdesc_manageFingerprint": "允許應用程式呼叫方法來新增及移除可用的指紋範本",
        "permdesc_manageNetworkPolicy": "允許應用程式管理網路政策並定義應用程式專用規則。",
        "permdesc_manageOwnCalls": "允許應用程式透過系統接通來電，以改善通話品質。",
        "permdesc_manageProfileAndDeviceOwners": "允許應用程式設定個人資料擁有者和裝置擁有者。",
        "permdesc_modifyAudioSettings": "允許應用程式修改全域音訊設定，例如音量和用來輸出的喇叭。",
        "permdesc_modifyNetworkAccounting": "允許應用程式修改應用程式網路使用量的計算方式 (不建議一般應用程式使用)。",
        "permdesc_nfc": "允許應用程式與近距離無線通訊 (NFC) 電子感應標籤、卡片及感應器進行通訊。",
        "permdesc_persistentActivity": "允許應用程式讓部分內容佔用記憶體，持續執行。這項設定可能會限制其他應用程式可用的記憶體，並拖慢手機運作速度。",
        "permdesc_processOutgoingCalls": "允許應用程式在撥打電話期間查看撥出的電話號碼，並可選擇改撥其他號碼或中斷通話。",
        "permdesc_readCalendar": "這個應用程式可讀取所有儲存在手機上的日曆活動資訊，以及共用或儲存日曆資料。",
        "permdesc_readCallLog": "這個應用程式可讀取通話記錄。",
        "permdesc_readCellBroadcasts": "允許應用程式讀取你裝置收到的區域廣播訊息。某些地點會發出區域廣播警示，警告你有緊急狀況發生。請注意，惡意應用程式可能會在裝置收到緊急區域廣播時，干擾裝置的效能或運作。",
        "permdesc_readContacts": "允許應用程式讀取手機上儲存的聯絡人資料，包括你與特定聯絡人通話、傳送電子郵件或使用其他通訊方式的互動頻率。這項權限可讓應用程式儲存你的聯絡人資料，惡意應用程式也可能私自共用聯絡人資料。",
        "permdesc_readHistoryBookmarks": "允許應用程式讀取瀏覽器造訪過的所有網址記錄，以及瀏覽器的所有書籤。注意：這項權限不適用於第三方瀏覽器或其他具備網頁瀏覽功能的應用程式。",
        "permdesc_readInstallSessions": "允許應用程式讀取安裝工作階段。應用程式將可查看目前的套件安裝詳細資料。",
        "permdesc_readNetworkUsageHistory": "允許應用程式讀取特定網路和應用程式的網路使用記錄。",
        "permdesc_readPhoneNumbers": "允許應用程式存取裝置上的電話號碼資料。",
        "permdesc_readPhoneState": "允許應用程式使用裝置的電話功能。這項權限可讓應用程式判讀手機號碼和裝置 ID、是否正在通話中，以及所撥打的對方號碼。",
        "permdesc_readSms": "這個應用程式可讀取所有儲存在手機上的簡訊。",
        "permdesc_readSyncSettings": "允許應用程式讀取帳戶的同步處理設定，例如判斷「使用者」應用程式是否和某個帳戶進行同步處理。",
        "permdesc_readSyncStats": "允許應用程式讀取帳戶的同步處理統計資料，包括同步處理活動記錄，以及同步處理的資料量。",
        "permdesc_receiveBootCompleted": "允許應用程式在系統完成開機程序後立即自行啟動。這會增加手機的開機時間，而且會因為系統一直執行該應用程式導致手機的整體運作速度變慢。",
        "permdesc_receiveMms": "允許應用程式接收和處理多媒體訊息。這項設定可讓應用程式監控傳送至你裝置的訊息，或在你閱讀訊息前擅自刪除訊息。",
        "permdesc_receiveSms": "允許應用程式接收和處理簡訊。這項設定可讓應用程式監控傳送至你裝置的訊息，或在你閱讀訊息前擅自刪除訊息。",
        "permdesc_receiveWapPush": "允許應用程式接收和處理 WAP 訊息。這項權限也能讓應用程式監控訊息，或在你閱讀訊息前擅自刪除訊息。",
        "permdesc_recordAudio": "這個應用程式隨時可使用麥克風錄音。",
        "permdesc_register_call_provider": "允許應用程式註冊新的電信連線。",
        "permdesc_register_sim_subscription": "允許應用程式註冊新的電信 SIM 卡連線。",
        "permdesc_removeDrmCertificates": "允許應用程式移除 DRM 憑證 (一般應用程式並不需要)。",
        "permdesc_reorderTasks": "允許應用程式將工作移至前景或背景。應用程式可以自行處理，不待你操作。",
        "permdesc_requestDeletePackages": "允許應用程式要求刪除套件。",
        "permdesc_requestIgnoreBatteryOptimizations": "允許應用程式要求權限，以便忽略針對該應用程式的電池效能最佳化設定。",
        "permdesc_requestInstallPackages": "允許應用程式要求安裝套件。",
        "permdesc_route_media_output": "允許應用程式將媒體輸出轉送至其他外部裝置。",
        "permdesc_runInBackground": "這個應用程式可在背景執行，這樣可能導致耗電速度加快。",
        "permdesc_sdcardRead": "允許應用程式讀取 SD 卡的內容。",
        "permdesc_sdcardWrite": "允許應用程式寫入 SD 卡。",
        "permdesc_sendSms": "允許應用程式傳送簡訊，但可能產生非預期的費用。惡意應用程式可能利用此功能擅自傳送簡訊，增加你不必要的額外支出。",
        "permdesc_setAlarm": "允許應用程式在安裝的鬧鐘應用程式中設定鬧鐘，某些鬧鐘應用程式可能無法執行這項功能。",
        "permdesc_setInputCalibration": "允許應用程式修改觸控螢幕的校正參數 (一般應用程式並不需要)。",
        "permdesc_setTimeZone": "允許應用程式變更手機的時區。",
        "permdesc_setWallpaper": "允許應用程式設定系統桌布。",
        "permdesc_setWallpaperHints": "允許應用程式設定系統桌布大小的提示。",
        "permdesc_sim_communication": "允許應用程式傳送指令到 SIM 卡。這麼做非常危險。",
        "permdesc_statusBar": "允許應用程式停用狀態列，並可新增或移除系統圖示。",
        "permdesc_statusBarService": "允許應用程式以狀態列顯示。",
        "permdesc_subscribedFeedsRead": "允許應用程式取得目前已同步處理的資訊提供詳細資料。",
        "permdesc_systemAlertWindow": "這個應用程式可顯示在其他應用程式上方或畫面中的其他位置。你可能會無法照常使用應用程式，且其他應用程式的顯示方式可能會受到影響。",
        "permdesc_transmitIr": "允許應用程式使用手機的紅外線傳送器。",
        "permdesc_uninstall_shortcut": "允許應用程式自動移除主螢幕捷徑。",
        "permdesc_useBiometric": "允許應用程式使用生物特徵硬體進行驗證",
        "permdesc_useDataInBackground": "這個應用程式可在背景使用行動數據連線，這樣可能導致數據用量增加。",
        "permdesc_useFingerprint": "允許應用程式使用指紋硬體進行驗證",
        "permdesc_use_sip": "允許應用程式撥打及接聽 SIP 通話。",
        "permdesc_vibrate": "允許應用程式控制震動。",
        "permdesc_wakeLock": "允許應用程式防止手機進入休眠狀態。",
        "permdesc_writeCalendar": "這個應用程式可在手機上新增、移除或變更日曆活動。提醒你，這個應用程式可能會以日曆擁有者的名義傳送訊息，或是在不通知日曆擁有者的情況下變更活動內容。",
        "permdesc_writeCallLog": "允許應用程式修改手機的通話記錄，包括來電和已撥電話相關資料。請注意，惡意應用程式可能濫用此功能刪除或修改你的通話記錄。",
        "permdesc_writeContacts": "允許應用程式讀取手機上儲存的聯絡人資料，包括你與特定聯絡人通話、傳送電子郵件或使用其他通訊方式的互動頻率。這項權限可讓應用程式刪除聯絡人資料。",
        "permdesc_writeGeolocationPermissions": "允許應用程式修改瀏覽器的地理位置權限。請注意，惡意應用程式可能利用此功能允許將你的位置資訊任意傳送給某些網站。",
        "permdesc_writeHistoryBookmarks": "允許應用程式修改手機上儲存的瀏覽記錄或書籤。這項設定會讓應用程式具有清除或修改瀏覽資料的權限。注意：這項權限不適用於第三方瀏覽器或其他具備網頁瀏覽功能的應用程式。",
        "permdesc_writeSettings": "允許應用程式修改系統設定資料。請注意，惡意應用程式可能利用此功能破壞系統設定。",
        "permdesc_writeSyncSettings": "允許應用程式修改帳戶的同步處理設定，例如讓「使用者」應用程式與某個帳戶進行同步處理。",
        "permgroupdesc_calendar": "存取你的日曆",
        "permgroupdesc_calllog": "讀取及寫入通話記錄",
        "permgroupdesc_camera": "拍照及錄製影片",
        "permgroupdesc_contacts": "存取你的聯絡人",
        "permgroupdesc_location": "存取這台裝置的位置資訊",
        "permgroupdesc_microphone": "錄音",
        "permgroupdesc_phone": "撥打電話及管理通話",
        "permgroupdesc_sensors": "存取與你生命徵象相關的感應器資料",
        "permgroupdesc_sms": "傳送及查看簡訊",
        "permgroupdesc_storage": "存取裝置中的相片、媒體和檔案",
        "permgrouplab_calendar": "日曆",
        "permgrouplab_calllog": "通話記錄",
        "permgrouplab_camera": "相機",
        "permgrouplab_contacts": "聯絡人",
        "permgrouplab_location": "位置",
        "permgrouplab_microphone": "麥克風",
        "permgrouplab_phone": "電話",
        "permgrouplab_sensors": "人體感應器",
        "permgrouplab_sms": "簡訊",
        "permgrouplab_storage": "儲存空間",
        "permgrouprequest_calendar": "要允許「",
        "permgrouprequest_calllog": "要允許「",
        "permgrouprequest_camera": "要允許「",
        "permgrouprequest_contacts": "要允許「",
        "permgrouprequest_location": "要允許「",
        "permgrouprequest_microphone": "要允許「",
        "permgrouprequest_phone": "要允許「",
        "permgrouprequest_sensors": "要允許「",
        "permgrouprequest_sms": "要允許「",
        "permgrouprequest_storage": "要允許「",
        "permlab_acceptHandover": "繼續進行來自其他應用程式的通話",
        "permlab_accessCoarseLocation": "存取概略位置 (以網路為依據)",
        "permlab_accessDrmCertificates": "存取 DRM 憑證",
        "permlab_accessFineLocation": "存取精確位置 (以 GPS 和網路為依據)",
        "permlab_accessImsCallService": "存取 IMS 撥號服務",
        "permlab_accessLocationExtraCommands": "接收額外的位置提供者指令",
        "permlab_accessNetworkConditions": "監聽網路狀況觀察資訊",
        "permlab_accessNetworkState": "查看網路連線",
        "permlab_accessNotifications": "存取通知",
        "permlab_accessWifiState": "查看 Wi-Fi 連線",
        "permlab_accessWimaxState": "建立或中斷與 WiMAX 網路的連線",
        "permlab_access_notification_policy": "存取「零打擾」模式",
        "permlab_addVoicemail": "新增語音留言",
        "permlab_answerPhoneCalls": "接聽電話",
        "permlab_bindCarrierMessagingService": "與電信業者簡訊服務繫結",
        "permlab_bindCarrierServices": "與電信業者服務繫結",
        "permlab_bindConditionProviderService": "繫結至條件提供者服務",
        "permlab_bindDreamService": "繫結至 Dream 服務",
        "permlab_bindNotificationListenerService": "繫結至通知接聽器服務",
        "permlab_bind_connection_service": "與電話語音服務互動",
        "permlab_bind_incall_service": "與通話螢幕互動",
        "permlab_bluetooth": "與藍牙裝置配對",
        "permlab_bluetoothAdmin": "存取藍牙設定",
        "permlab_bodySensors": "存取人體感應器 (例如心跳速率監測器)",
        "permlab_broadcastSticky": "傳送附屬廣播",
        "permlab_callPhone": "直接撥打電話號碼",
        "permlab_camera": "拍攝相片和影片",
        "permlab_changeNetworkState": "變更網路連線",
        "permlab_changeTetherState": "變更數據連線",
        "permlab_changeWifiMulticastState": "允許接收 Wi-Fi 多點傳播封包",
        "permlab_changeWifiState": "建立及中斷 Wi-Fi 連線",
        "permlab_changeWimaxState": "變更 WiMAX 狀態",
        "permlab_connection_manager": "管理電信連線",
        "permlab_control_incall_experience": "為使用者提供通話體驗",
        "permlab_createNetworkSockets": "擁有完整的網路存取權",
        "permlab_disableKeyguard": "停用螢幕鎖定",
        "permlab_enableCarMode": "啟用行車模式",
        "permlab_expandStatusBar": "展開/收攏狀態列",
        "permlab_foregroundService": "執行前景服務",
        "permlab_getAccounts": "尋找裝置上的帳戶",
        "permlab_getPackageSize": "測量應用程式儲存空間",
        "permlab_getTasks": "擷取執行中的應用程式",
        "permlab_handoverStatus": "接收 Android Beam 的傳輸狀態",
        "permlab_install_shortcut": "安裝捷徑",
        "permlab_invokeCarrierSetup": "叫用電信業者提供的設定應用程式",
        "permlab_killBackgroundProcesses": "關閉其他應用程式",
        "permlab_manageFingerprint": "管理指紋硬體",
        "permlab_manageNetworkPolicy": "管理網路政策",
        "permlab_manageOwnCalls": "透過系統接通來電",
        "permlab_manageProfileAndDeviceOwners": "管理個人資料和裝置擁有者",
        "permlab_modifyAudioSettings": "變更音訊設定",
        "permlab_modifyNetworkAccounting": "修改網路使用量計算方式",
        "permlab_nfc": "控制近距離無線通訊",
        "permlab_persistentActivity": "一律執行應用程式",
        "permlab_processOutgoingCalls": "重設撥號路徑",
        "permlab_readCalendar": "讀取日曆活動和詳細資訊",
        "permlab_readCallLog": "讀取通話記錄",
        "permlab_readCellBroadcasts": "讀取區域廣播訊息",
        "permlab_readContacts": "讀取你的聯絡人",
        "permlab_readHistoryBookmarks": "讀取你的網路書籤和記錄",
        "permlab_readInstallSessions": "讀取安裝工作階段",
        "permlab_readNetworkUsageHistory": "讀取網路用量記錄",
        "permlab_readPhoneNumbers": "讀取電話號碼",
        "permlab_readPhoneState": "讀取手機狀態和識別碼",
        "permlab_readSms": "讀取你的簡訊 (SMS 或 MMS)",
        "permlab_readSyncSettings": "讀取同步處理設定",
        "permlab_readSyncStats": "讀取同步處理狀態",
        "permlab_receiveBootCompleted": "啟動時執行",
        "permlab_receiveMms": "接收簡訊 (MMS)",
        "permlab_receiveSms": "接收簡訊 (SMS)",
        "permlab_receiveWapPush": "接收簡訊 (WAP)",
        "permlab_recordAudio": "錄製音訊",
        "permlab_register_call_provider": "註冊新的電信連線",
        "permlab_register_sim_subscription": "註冊新的電信 SIM 卡連線",
        "permlab_removeDrmCertificates": "移除 DRM 憑證",
        "permlab_reorderTasks": "重新排序正在執行的應用程式",
        "permlab_requestDeletePackages": "要求刪除套件",
        "permlab_requestIgnoreBatteryOptimizations": "要求忽略電池效能最佳化設定",
        "permlab_requestInstallPackages": "要求安裝套件",
        "permlab_route_media_output": "轉送媒體輸出",
        "permlab_runInBackground": "在背景執行",
        "permlab_sdcardRead": "讀取 SD 卡的內容",
        "permlab_sdcardWrite": "修改或刪除 SD 卡的內容",
        "permlab_sendSms": "傳送及查看簡訊",
        "permlab_setAlarm": "設定鬧鐘",
        "permlab_setInputCalibration": "變更輸入裝置校正設定",
        "permlab_setTimeZone": "設定時區",
        "permlab_setWallpaper": "設定桌布",
        "permlab_setWallpaperHints": "調整桌布大小",
        "permlab_sim_communication": "傳送指令到 SIM 卡",
        "permlab_statusBar": "停用或變更狀態列",
        "permlab_statusBarService": "以狀態列顯示",
        "permlab_subscribedFeedsRead": "讀取訂閱資訊提供",
        "permlab_systemAlertWindow": "這個應用程式可顯示在其他應用程式上方",
        "permlab_transmitIr": "傳送紅外線",
        "permlab_uninstall_shortcut": "解除安裝捷徑",
        "permlab_useBiometric": "使用生物特徵硬體",
        "permlab_useDataInBackground": "在背景使用行動數據連線",
        "permlab_useFingerprint": "使用指紋硬體",
        "permlab_use_sip": "撥打/接聽 SIP 通話",
        "permlab_vibrate": "控制震動",
        "permlab_wakeLock": "防止手機進入待命狀態",
        "permlab_writeCalendar": "在未經擁有者同意的情況下新增或修改日曆活動，以及傳送電子郵件給邀請對象",
        "permlab_writeCallLog": "寫入通話記錄",
        "permlab_writeContacts": "修改你的聯絡人",
        "permlab_writeGeolocationPermissions": "修改瀏覽器地理資訊的權限",
        "permlab_writeHistoryBookmarks": "寫入網路書籤和記錄",
        "permlab_writeSettings": "修改系統設定",
        "permlab_writeSyncSettings": "開啟及關閉同步功能"
    },
    "sidebars": {
        "donate": {
            "bank_transfer_name": "名稱",
            "bitcoin_alt": "透過 Bitcoin 捐助",
            "flattr_alt": "透過 Flattr 捐助",
            "heading": "捐助",
            "hellotux": "👕 T-shirt 👕 來自",
            "hellotux_alt": "HELLOTUX",
            "hellotux_donation": "每賣出一件衣服，F-Droid 就會收到 3 歐元。",
            "liberapay_alt": "透過 Liberapay 捐助",
            "litecoin_alt": "透過 Litecoin 捐助",
            "paypal_alt": "透過 PayPal 捐助",
            "powered_by_donations": "F-Droid 的動力來自於您的捐助！",
            "via_bank_transfer": "銀行轉帳"
        },
        "lang": {
            "change": "更改"
        },
        "last_updated": {
            "heading": "最近更新"
        },
        "latest_packages": {
            "heading": "最近新增"
        },
        "news": {
            "heading": "新聞"
        },
        "search": {
            "heading": "搜尋應用程式",
            "noscript": "此功能需要啟動 JavaScript",
            "search": "搜尋"
        }
    }
}
